Order-Id,Item-id,Product-Id,Quantity,Sales-Id,Customer-Id,Sales-Price-Per-Prod,Market-Segment
0,0,19,25,1,12,98,education
1,1,3,8,0,5,199,realestate
2,2,16,21,7,22,152,education
3,3,16,20,5,0,150,education
4,4,4,3,7,23,142,software
5,5,7,6,8,1,167,financial
6,6,15,18,2,26,205,pharmaceutical
7,7,8,24,4,5,166,realestate
8,8,1,27,3,13,232,software
9,9,3,1,2,1,179,retail
10,10,7,19,1,3,149,realestate
11,11,12,2,3,0,107,financial
12,12,12,8,6,29,97,realestate
13,13,0,15,3,27,122,software
14,14,6,1,1,18,67,pharmaceutical
15,15,5,10,7,11,107,pharmaceutical
16,16,14,24,1,23,184,financial
17,17,5,12,0,15,113,pharmaceutical
18,18,4,16,7,11,175,pharmaceutical
19,19,14,11,2,23,192,financial
20,20,1,14,4,17,218,software
21,21,4,7,1,22,190,pharmaceutical
22,22,1,6,3,24,206,education
23,23,15,25,3,3,201,realestate
24,24,15,26,0,15,202,software
25,25,0,23,9,3,121,pharmaceutical
26,26,13,4,3,12,108,retail
27,27,13,20,4,7,118,retail
28,28,18,22,6,4,103,education
29,29,1,26,1,9,202,financial
30,30,13,3,2,21,126,retail
31,31,0,1,5,18,123,pharmaceutical
32,32,5,4,9,22,104,retail
33,33,6,0,6,10,86,education
34,34,3,16,6,6,170,pharmaceutical
35,35,15,8,2,14,214,pharmaceutical
36,36,7,13,9,27,139,financial
37,37,0,1,9,23,123,retail
38,38,1,21,0,0,229,software
39,39,16,9,2,29,156,pharmaceutical
40,40,7,20,0,9,151,realestate
41,41,4,7,0,9,135,software
42,42,18,3,5,29,66,education
43,43,12,19,6,8,105,software
44,44,16,13,5,21,159,realestate
45,45,15,2,2,1,200,education
46,46,2,26,2,27,214,software
47,47,15,7,3,24,187,education
48,48,19,14,4,10,112,education
49,49,19,27,9,29,88,financial
50,50,13,21,8,20,143,realestate
51,51,17,6,8,11,189,software
52,52,15,15,4,21,209,pharmaceutical
53,53,2,5,7,2,215,pharmaceutical
54,54,7,5,6,13,144,education
55,55,9,24,1,16,102,software
56,56,12,6,1,29,91,financial
57,57,15,18,9,20,196,realestate
58,58,3,23,8,20,208,software
59,59,11,12,4,15,95,retail
60,60,17,22,0,9,194,education
61,61,4,20,6,27,130,realestate
62,62,6,29,4,15,77,software
63,63,16,13,0,22,147,pharmaceutical
64,64,0,5,0,13,123,financial
65,65,15,26,3,29,219,software
66,66,18,4,2,4,84,realestate
67,67,19,25,4,2,106,retail
68,68,12,0,6,15,92,retail
69,69,5,6,0,29,108,realestate
70,70,0,21,8,28,121,pharmaceutical
71,71,0,9,5,15,123,pharmaceutical
72,72,11,24,8,2,126,financial
73,73,17,8,2,23,191,retail
74,74,7,1,3,2,121,education
75,75,13,5,5,12,93,pharmaceutical
76,76,14,12,4,12,181,realestate
77,77,19,6,8,4,103,financial
78,78,4,12,4,5,173,realestate
79,79,12,27,0,7,78,software
80,80,2,3,5,7,219,financial
81,81,16,27,9,3,146,retail
82,82,8,22,2,29,140,education
83,83,6,20,1,29,40,pharmaceutical
84,84,12,29,0,13,87,retail
85,85,3,0,8,20,216,software
86,86,9,24,2,19,68,software
87,87,3,28,0,21,201,realestate
88,88,17,22,4,0,187,financial
89,89,14,16,4,17,188,financial
90,90,4,25,6,26,192,education
91,91,12,14,3,5,105,realestate
92,92,12,19,2,2,98,realestate
93,93,19,24,1,22,87,financial
94,94,18,10,8,17,89,education
95,95,3,29,5,26,179,pharmaceutical
96,96,1,14,3,26,192,software
97,97,14,24,7,17,195,retail
98,98,18,24,1,8,55,financial
99,99,3,15,9,23,189,education
100,100,3,17,1,9,171,education
101,101,18,14,8,16,97,retail
102,102,5,5,3,3,108,education
103,103,17,29,0,17,192,financial
104,104,6,25,7,3,84,education
105,105,16,15,8,2,151,software
106,106,10,10,9,28,119,pharmaceutical
107,107,15,20,4,22,208,pharmaceutical
108,108,3,18,9,29,210,realestate
109,109,5,8,3,5,104,software
110,110,13,21,2,26,101,retail
111,111,4,11,5,2,137,pharmaceutical
112,112,1,0,3,19,227,pharmaceutical
113,113,1,26,8,27,201,financial
114,114,6,10,1,13,83,financial
115,115,14,22,7,5,193,realestate
116,116,14,23,2,9,185,realestate
117,117,10,28,4,4,155,software
118,118,9,25,9,28,69,retail
119,119,6,21,2,13,86,education
120,120,3,15,3,20,180,software
121,121,14,14,4,17,190,retail
122,122,13,22,1,13,142,education
123,123,8,5,2,15,173,realestate
124,124,16,17,9,10,157,retail
125,125,12,9,0,16,107,software
126,126,7,20,5,7,125,realestate
127,127,15,28,8,22,200,financial
128,128,4,17,6,23,144,pharmaceutical
129,129,2,15,2,23,211,realestate
130,130,7,3,1,6,155,financial
131,131,14,11,4,20,192,pharmaceutical
132,132,8,29,9,21,169,software
133,133,0,24,6,25,122,financial
134,134,18,2,4,5,87,software
135,135,2,5,6,20,212,realestate
136,136,7,9,2,9,161,financial
137,137,15,10,0,16,193,financial
138,138,3,25,1,23,166,retail
139,139,1,2,5,6,164,software
140,140,11,6,3,0,123,software
141,141,4,6,0,0,132,pharmaceutical
142,142,3,17,1,22,179,retail
143,143,16,1,5,15,148,pharmaceutical
144,144,8,11,9,27,186,education
145,145,10,5,0,18,137,retail
146,146,14,11,5,10,182,software
147,147,19,23,9,12,86,financial
148,148,15,19,5,20,190,realestate
149,149,11,16,0,21,101,education
150,150,17,25,6,8,195,software
151,151,13,3,3,20,121,retail
152,152,13,22,4,19,135,financial
153,153,15,10,5,20,211,education
154,154,18,3,5,14,78,financial
155,155,14,4,1,4,183,realestate
156,156,5,13,0,11,116,realestate
157,157,5,28,8,22,108,education
158,158,8,27,2,29,187,software
159,159,0,3,5,8,121,realestate
160,160,15,6,6,9,206,realestate
161,161,17,1,1,7,193,pharmaceutical
162,162,12,28,4,26,100,realestate
163,163,18,19,7,16,76,software
164,164,11,24,8,11,119,financial
165,165,18,8,7,6,93,retail
166,166,9,16,8,15,75,retail
167,167,5,0,0,4,139,pharmaceutical
168,168,7,28,6,13,155,education
169,169,3,29,4,15,205,software
170,170,13,9,1,25,109,financial
171,171,1,17,1,18,167,pharmaceutical
172,172,14,0,1,26,194,software
173,173,8,13,8,26,113,education
174,174,4,20,4,22,140,retail
175,175,8,25,1,0,192,software
176,176,6,0,3,28,38,software
177,177,3,22,2,17,199,pharmaceutical
178,178,17,22,9,8,193,financial
179,179,14,18,8,21,198,education
180,180,1,19,1,3,207,pharmaceutical
181,181,7,29,4,24,140,retail
182,182,7,12,6,24,126,realestate
183,183,16,24,4,24,149,software
184,184,11,19,7,26,137,education
185,185,13,22,1,11,88,education
186,186,3,1,1,27,207,financial
187,187,8,21,0,17,193,retail
188,188,11,13,6,26,124,retail
189,189,18,27,1,10,85,pharmaceutical
190,190,1,19,2,24,160,realestate
191,191,3,1,1,15,190,financial
192,192,16,14,8,13,155,realestate
193,193,13,20,6,22,104,education
194,194,14,26,0,0,191,education
195,195,14,17,0,7,183,pharmaceutical
196,196,8,4,2,5,150,financial
197,197,4,29,8,18,171,financial
198,198,9,5,3,28,70,financial
199,199,6,4,9,7,62,education
200,200,5,22,6,2,105,education
201,201,3,17,2,8,205,realestate
202,202,16,5,8,20,149,education
203,203,10,10,3,27,152,software
204,204,16,22,6,11,148,retail
205,205,9,4,5,21,78,software
206,206,14,18,1,16,184,pharmaceutical
207,207,7,0,4,1,164,software
208,208,15,9,0,25,189,financial
209,209,16,21,6,10,147,realestate
210,210,7,5,9,12,144,pharmaceutical
211,211,19,26,4,0,101,realestate
212,212,14,15,6,8,195,retail
213,213,5,9,9,25,108,retail
214,214,9,25,4,5,67,education
215,215,8,11,6,3,157,retail
216,216,18,12,4,27,83,pharmaceutical
217,217,12,21,9,15,92,realestate
218,218,11,19,3,12,95,software
219,219,17,3,4,13,191,realestate
220,220,10,7,3,0,105,retail
221,221,5,15,0,12,137,software
222,222,11,16,4,21,110,realestate
223,223,7,17,8,23,132,realestate
224,224,7,4,8,24,144,retail
225,225,3,13,2,5,211,retail
226,226,13,25,4,2,119,pharmaceutical
227,227,17,7,5,10,195,pharmaceutical
228,228,15,26,3,7,198,pharmaceutical
229,229,15,0,8,9,220,education
230,230,14,21,8,16,198,retail
231,231,10,28,6,16,159,education
232,232,2,15,3,23,200,retail
233,233,14,4,2,7,178,software
234,234,18,12,2,28,86,retail
235,235,12,24,7,17,80,software
236,236,9,11,2,28,102,pharmaceutical
237,237,8,15,7,27,166,financial
238,238,7,27,3,18,122,financial
239,239,10,5,5,3,104,financial
240,240,0,26,1,19,119,financial
241,241,0,5,5,12,121,education
242,242,12,27,4,5,90,retail
243,243,3,27,7,24,210,retail
244,244,11,4,7,23,140,realestate
245,245,5,17,9,7,113,realestate
246,246,18,14,3,25,76,retail
247,247,17,8,6,16,204,realestate
248,248,5,27,3,25,132,education
249,249,11,15,4,19,124,pharmaceutical
250,250,18,23,9,11,98,financial
251,251,1,14,9,24,229,software
252,252,2,8,7,27,207,realestate
253,253,12,27,9,2,80,software
254,254,4,11,5,20,147,realestate
255,255,5,19,1,16,109,realestate
256,256,11,25,9,24,111,pharmaceutical
257,257,6,14,8,19,81,pharmaceutical
258,258,0,19,0,11,121,pharmaceutical
259,259,1,7,8,26,207,retail
260,260,15,14,0,11,194,financial
261,261,2,26,2,7,206,realestate
262,262,0,26,4,7,120,realestate
263,263,5,23,3,7,106,retail
264,264,13,26,1,15,121,pharmaceutical
265,265,19,24,5,21,103,retail
266,266,13,25,3,13,141,realestate
267,267,15,17,7,26,198,education
268,268,5,3,1,3,107,pharmaceutical
269,269,4,29,9,6,193,realestate
270,270,10,15,9,1,107,pharmaceutical
271,271,8,16,7,22,114,pharmaceutical
272,272,8,3,8,27,195,pharmaceutical
273,273,8,14,8,3,138,financial
274,274,7,29,1,29,150,software
275,275,16,28,4,16,156,realestate
276,276,0,5,2,1,120,retail
277,277,8,12,6,16,127,software
278,278,11,17,5,29,99,retail
279,279,14,27,9,16,189,realestate
280,280,9,1,8,16,79,realestate
281,281,19,4,6,10,77,retail
282,282,18,27,3,11,98,education
283,283,12,10,8,1,103,retail
284,284,2,0,2,27,205,retail
285,285,7,3,2,3,161,pharmaceutical
286,286,6,4,3,5,53,realestate
287,287,1,24,4,28,190,realestate
288,288,12,17,2,22,89,software
289,289,0,7,0,29,120,financial
290,290,4,7,2,27,146,realestate
291,291,1,26,9,5,215,pharmaceutical
292,292,10,9,0,5,117,pharmaceutical
293,293,9,19,8,12,103,retail
294,294,19,12,4,18,94,education
295,295,2,23,8,8,209,retail
296,296,10,18,5,15,137,retail
297,297,15,5,5,4,201,education
298,298,14,19,2,11,190,pharmaceutical
299,299,11,27,6,9,117,software
300,300,7,16,6,0,147,realestate
301,301,18,21,5,26,82,pharmaceutical
302,302,3,2,0,20,184,retail
303,303,14,16,9,13,191,retail
304,304,12,19,0,22,100,realestate
305,305,12,8,5,5,101,realestate
306,306,8,20,2,22,139,pharmaceutical
307,307,3,2,8,23,198,retail
308,308,17,10,7,27,185,software
309,309,12,9,3,19,82,financial
310,310,2,18,1,1,200,education
311,311,8,12,4,2,182,financial
312,312,1,27,7,28,218,financial
313,313,12,17,0,19,84,realestate
314,314,13,20,1,7,107,retail
315,315,18,7,0,17,98,software
316,316,8,6,8,4,191,education
317,317,12,4,0,23,103,realestate
318,318,16,6,7,5,157,retail
319,319,10,0,5,29,105,software
320,320,11,8,0,21,92,software
321,321,19,28,5,3,87,pharmaceutical
322,322,17,9,6,18,189,retail
323,323,9,10,7,12,104,retail
324,324,2,9,0,5,202,realestate
325,325,12,0,1,2,80,pharmaceutical
326,326,8,7,3,10,124,software
327,327,5,6,2,17,93,financial
328,328,14,0,7,8,199,realestate
329,329,6,0,1,23,82,pharmaceutical
330,330,16,28,2,22,154,financial
331,331,12,17,1,23,110,retail
332,332,17,25,9,29,199,software
333,333,4,25,1,22,192,software
334,334,19,13,1,0,94,education
335,335,15,5,4,24,187,financial
336,336,15,3,8,11,195,pharmaceutical
337,337,4,6,9,1,194,software
338,338,5,23,7,16,121,retail
339,339,1,26,1,0,213,realestate
340,340,6,3,1,29,55,realestate
341,341,0,23,8,6,119,education
342,342,16,12,0,18,146,pharmaceutical
343,343,3,11,1,8,180,realestate
344,344,5,24,2,0,128,education
345,345,10,24,2,3,155,pharmaceutical
346,346,11,1,8,9,103,realestate
347,347,15,27,1,2,197,financial
348,348,6,16,0,6,46,pharmaceutical
349,349,17,29,8,9,186,realestate
350,350,2,9,8,21,213,pharmaceutical
351,351,16,23,3,16,151,software
352,352,15,25,1,28,182,realestate
353,353,4,2,6,4,164,realestate
354,354,6,0,0,6,38,pharmaceutical
355,355,13,10,2,9,105,education
356,356,1,20,6,21,203,retail
357,357,4,16,5,7,187,pharmaceutical
358,358,13,7,7,27,92,software
359,359,19,7,8,13,81,realestate
360,360,4,16,0,11,133,pharmaceutical
361,361,0,27,6,3,121,pharmaceutical
362,362,0,21,5,20,123,pharmaceutical
363,363,18,21,3,26,92,financial
364,364,1,24,8,4,210,financial
365,365,4,24,6,18,184,retail
366,366,4,4,8,12,175,retail
367,367,0,7,4,23,119,financial
368,368,5,16,9,25,96,realestate
369,369,7,18,3,6,152,pharmaceutical
370,370,8,13,1,16,155,software
371,371,16,19,8,3,147,financial
372,372,3,12,0,13,203,pharmaceutical
373,373,1,16,3,6,188,retail
374,374,2,17,9,7,219,realestate
375,375,13,8,1,24,99,software
376,376,14,22,7,10,199,retail
377,377,9,27,7,22,88,education
378,378,14,19,4,21,181,pharmaceutical
379,379,3,23,0,28,215,realestate
380,380,18,6,1,5,80,education
381,381,13,22,3,10,95,pharmaceutical
382,382,8,17,3,19,141,software
383,383,8,19,3,10,199,retail
384,384,9,22,8,26,43,realestate
385,385,19,9,9,17,72,retail
386,386,16,24,1,22,147,pharmaceutical
387,387,13,25,7,9,136,pharmaceutical
388,388,13,13,6,17,93,software
389,389,16,9,5,8,149,retail
390,390,16,26,9,12,161,realestate
391,391,4,26,2,24,190,retail
392,392,8,20,1,4,157,retail
393,393,4,2,4,18,187,retail
394,394,6,20,2,8,49,pharmaceutical
395,395,9,26,4,9,74,pharmaceutical
396,396,9,19,3,3,64,realestate
397,397,9,19,8,4,105,financial
398,398,8,4,8,19,198,financial
399,399,4,3,2,3,157,software
400,400,11,6,1,26,105,financial
401,401,3,0,3,20,206,retail
402,402,18,17,8,5,71,retail
403,403,10,19,7,28,90,financial
404,404,12,0,0,9,79,education
405,405,16,26,5,14,159,software
406,406,15,20,3,12,218,realestate
407,407,17,12,4,14,191,education
408,408,7,21,8,4,142,pharmaceutical
409,409,12,13,7,6,105,retail
410,410,4,15,9,14,185,retail
411,411,10,23,7,14,88,pharmaceutical
412,412,18,3,3,7,81,financial
413,413,12,14,8,20,99,education
414,414,6,27,7,0,80,education
415,415,18,1,9,19,97,education
416,416,8,4,8,22,190,realestate
417,417,4,29,0,9,182,realestate
418,418,2,20,1,13,204,software
419,419,1,24,1,9,199,education
420,420,19,20,8,12,87,software
421,421,16,0,5,25,151,education
422,422,4,11,0,9,153,retail
423,423,7,7,8,22,144,financial
424,424,3,15,4,0,198,software
425,425,11,28,8,3,107,realestate
426,426,5,21,5,24,107,financial
427,427,1,9,2,5,187,education
428,428,19,6,0,4,105,financial
429,429,4,28,0,16,165,retail
430,430,2,9,6,6,199,software
431,431,8,29,0,18,148,pharmaceutical
432,432,8,1,7,25,119,realestate
433,433,2,29,9,2,201,education
434,434,18,4,6,9,93,education
435,435,17,5,7,6,192,education
436,436,12,20,4,2,98,retail
437,437,18,18,5,4,102,education
438,438,15,19,8,23,182,education
439,439,1,7,6,12,181,realestate
440,440,13,21,6,19,121,realestate
441,441,16,28,1,29,157,software
442,442,2,8,7,14,199,retail
443,443,8,28,7,20,181,realestate
444,444,7,14,0,6,142,education
445,445,15,12,4,23,212,retail
446,446,8,27,2,27,201,education
447,447,9,13,9,17,88,pharmaceutical
448,448,4,16,3,23,194,retail
449,449,6,7,3,29,85,retail
450,450,13,26,6,29,114,retail
451,451,5,26,4,6,139,software
452,452,7,18,5,6,158,education
453,453,1,22,2,28,178,education
454,454,1,5,1,14,169,realestate
455,455,9,24,4,12,50,software
456,456,13,23,4,7,111,software
457,457,9,1,3,15,88,realestate
458,458,18,7,2,12,96,retail
459,459,6,6,0,27,82,pharmaceutical
460,460,8,11,9,25,150,software
461,461,7,28,8,8,149,software
462,462,18,22,9,6,57,financial
463,463,12,20,2,6,92,education
464,464,0,29,6,18,119,education
465,465,12,13,9,25,106,financial
466,466,1,27,5,16,165,software
467,467,7,8,7,4,120,software
468,468,13,20,8,20,132,education
469,469,15,5,3,14,216,retail
470,470,10,20,5,21,144,retail
471,471,5,9,6,5,107,pharmaceutical
472,472,11,6,2,26,132,education
473,473,13,0,5,26,129,realestate
474,474,19,9,8,25,104,software
475,475,10,1,0,26,100,software
476,476,2,29,0,14,204,financial
477,477,1,3,6,10,157,financial
478,478,19,18,1,24,98,software
479,479,14,10,6,18,185,realestate
480,480,10,6,0,22,97,retail
481,481,14,27,0,0,198,software
482,482,5,3,6,11,135,pharmaceutical
483,483,5,11,1,21,127,retail
484,484,5,26,7,20,123,retail
485,485,10,3,4,2,146,realestate
486,486,19,12,5,17,83,realestate
487,487,17,1,7,24,201,retail
488,488,4,5,2,6,145,retail
489,489,10,29,9,13,139,software
490,490,1,4,6,29,199,software
491,491,8,24,1,6,182,retail
492,492,16,2,4,6,159,retail
493,493,0,18,5,15,120,pharmaceutical
494,494,12,1,8,17,82,education
495,495,18,29,3,7,58,financial
496,496,0,3,8,20,119,retail
497,497,3,14,7,2,169,software
498,498,19,8,7,13,100,education
499,499,6,5,1,3,53,education
500,500,9,24,4,14,80,software
501,501,13,2,1,17,124,realestate
502,502,0,23,9,5,121,financial
503,503,18,3,6,29,79,education
504,504,5,0,2,6,95,education
505,505,3,13,1,7,177,realestate
506,506,4,28,9,26,166,software
507,507,6,13,5,18,52,financial
508,508,9,18,1,24,96,education
509,509,10,25,2,1,149,education
510,510,2,29,3,28,217,realestate
511,511,16,25,2,2,160,financial
512,512,9,7,7,10,54,education
513,513,0,11,5,22,121,education
514,514,18,28,3,11,72,realestate
515,515,9,2,1,28,75,pharmaceutical
516,516,1,20,8,28,218,financial
517,517,19,0,8,21,75,realestate
518,518,3,3,9,0,183,pharmaceutical
519,519,11,26,4,9,140,financial
520,520,11,24,5,13,105,realestate
521,521,2,17,2,10,211,retail
522,522,13,0,1,10,88,realestate
523,523,0,6,0,2,122,education
524,524,15,24,0,4,184,retail
525,525,11,2,1,25,113,realestate
526,526,12,10,3,16,88,pharmaceutical
527,527,13,27,6,4,143,software
528,528,0,2,8,9,122,realestate
529,529,9,21,0,8,60,education
530,530,7,4,6,20,166,financial
531,531,8,19,8,8,207,education
532,532,9,5,6,2,100,financial
533,533,10,28,2,23,110,realestate
534,534,2,9,1,11,209,pharmaceutical
535,535,3,22,7,18,197,software
536,536,12,26,3,6,84,software
537,537,9,6,5,23,103,financial
538,538,8,11,2,8,168,financial
539,539,5,11,7,26,96,financial
540,540,5,22,0,11,136,retail
541,541,6,6,8,8,70,education
542,542,12,10,5,7,107,software
543,543,4,1,6,4,155,software
544,544,13,29,9,4,146,retail
545,545,0,18,8,8,122,software
546,546,3,4,3,5,200,financial
547,547,13,26,6,28,138,software
548,548,11,4,5,9,112,realestate
549,549,8,8,8,28,159,software
550,550,15,18,7,13,194,financial
551,551,9,29,3,3,102,realestate
552,552,3,16,7,21,188,software
553,553,0,25,4,9,121,software
554,554,19,10,2,19,111,education
555,555,8,15,5,29,135,financial
556,556,17,1,2,5,186,financial
557,557,6,5,5,6,45,realestate
558,558,3,25,9,8,193,realestate
559,559,7,1,9,23,123,education
560,560,11,27,9,0,119,financial
561,561,15,25,7,12,185,financial
562,562,10,17,0,25,121,retail
563,563,19,16,0,5,83,financial
564,564,2,10,5,1,200,retail
565,565,13,21,0,1,96,retail
566,566,15,24,4,28,180,retail
567,567,2,24,7,11,202,pharmaceutical
568,568,8,4,7,22,131,software
569,569,16,17,9,15,146,retail
570,570,1,7,5,17,225,realestate
571,571,3,29,6,16,205,financial
572,572,1,19,3,21,205,realestate
573,573,18,16,3,5,78,financial
574,574,12,13,8,23,81,retail
575,575,17,29,4,8,204,education
576,576,7,18,7,11,125,realestate
577,577,14,24,2,5,182,education
578,578,13,24,3,10,142,realestate
579,579,9,4,6,22,45,software
580,580,11,14,8,7,112,realestate
581,581,10,4,9,11,99,realestate
582,582,9,26,6,22,51,education
583,583,8,19,4,20,111,software
584,584,6,20,3,13,69,pharmaceutical
585,585,1,13,9,13,179,pharmaceutical
586,586,3,11,8,20,173,realestate
587,587,17,18,2,4,188,retail
588,588,18,9,5,14,92,financial
589,589,7,18,8,28,148,pharmaceutical
590,590,7,21,1,9,125,software
591,591,5,13,8,28,114,financial
592,592,13,26,9,14,133,education
593,593,5,29,8,20,125,education
594,594,4,8,8,3,130,education
595,595,5,17,5,19,93,financial
596,596,18,27,5,19,93,realestate
597,597,10,16,1,14,155,realestate
598,598,14,23,7,22,186,financial
599,599,12,18,0,18,81,pharmaceutical
600,600,7,21,1,7,154,education
601,601,4,12,3,2,171,education
602,602,5,26,6,17,112,education
603,603,0,10,5,3,123,pharmaceutical
604,604,11,28,0,29,104,software
605,605,9,0,4,6,48,financial
606,606,19,0,3,18,118,realestate
607,607,4,23,6,14,167,realestate
608,608,3,9,4,4,194,realestate
609,609,5,23,6,23,129,financial
610,610,11,3,9,12,128,pharmaceutical
611,611,5,13,4,18,106,retail
612,612,4,5,7,6,175,pharmaceutical
613,613,8,20,2,5,173,software
614,614,16,1,9,3,161,realestate
615,615,15,4,2,2,204,pharmaceutical
616,616,11,6,2,12,140,retail
617,617,1,2,7,14,201,realestate
618,618,4,14,5,5,130,software
619,619,3,0,6,17,170,financial
620,620,2,5,8,3,202,pharmaceutical
621,621,13,0,3,1,95,financial
622,622,2,25,2,21,204,retail
623,623,10,8,2,24,140,education
624,624,6,27,7,12,54,realestate
625,625,15,4,6,25,180,financial
626,626,8,29,0,17,162,financial
627,627,5,15,2,21,108,realestate
628,628,14,24,8,2,198,pharmaceutical
629,629,2,1,6,21,205,realestate
630,630,9,9,8,14,62,pharmaceutical
631,631,19,0,9,4,80,software
632,632,7,12,0,21,166,pharmaceutical
633,633,9,4,1,5,57,retail
634,634,12,17,3,3,85,realestate
635,635,1,21,4,2,177,software
636,636,14,27,8,24,191,retail
637,637,3,10,6,9,175,realestate
638,638,14,1,4,2,186,education
639,639,12,6,7,1,98,financial
640,640,0,19,7,12,122,realestate
641,641,6,20,6,18,81,pharmaceutical
642,642,19,26,7,14,88,education
643,643,10,10,7,8,96,pharmaceutical
644,644,4,16,7,10,187,pharmaceutical
645,645,18,4,2,25,86,realestate
646,646,16,2,4,0,146,education
647,647,0,18,9,1,119,retail
648,648,7,1,2,29,166,education
649,649,3,2,0,3,195,pharmaceutical
650,650,19,8,1,23,115,education
651,651,11,10,0,28,119,financial
652,652,0,1,9,1,122,financial
653,653,1,7,9,0,210,software
654,654,19,21,7,25,119,software
655,655,2,26,3,11,201,realestate
656,656,11,26,0,4,131,education
657,657,1,19,0,14,158,financial
658,658,19,7,0,21,75,pharmaceutical
659,659,2,17,4,27,212,education
660,660,10,17,1,28,92,retail
661,661,16,15,5,13,162,education
662,662,11,24,0,25,141,financial
663,663,11,4,9,13,104,education
664,664,4,9,5,25,151,realestate
665,665,15,1,1,25,191,education
666,666,8,4,0,12,169,education
667,667,4,13,3,9,151,software
668,668,1,2,5,24,162,retail
669,669,13,8,1,5,109,pharmaceutical
670,670,10,20,0,25,153,software
671,671,2,14,3,23,202,software
672,672,2,5,2,21,219,software
673,673,17,25,7,5,195,realestate
674,674,6,28,1,27,50,software
675,675,14,7,9,7,180,pharmaceutical
676,676,13,19,0,24,140,pharmaceutical
677,677,17,2,2,19,195,realestate
678,678,1,29,5,6,231,software
679,679,7,19,7,14,129,software
680,680,9,23,0,13,56,pharmaceutical
681,681,17,5,2,7,185,software
682,682,7,24,7,5,153,financial
683,683,3,26,0,23,205,pharmaceutical
684,684,2,9,2,26,214,software
685,685,13,26,9,9,134,pharmaceutical
686,686,18,15,7,12,64,realestate
687,687,6,29,9,13,41,retail
688,688,4,7,6,6,179,realestate
689,689,2,27,0,22,214,education
690,690,1,6,2,23,186,software
691,691,2,10,4,15,203,financial
692,692,10,25,8,19,106,education
693,693,0,27,1,12,119,education
694,694,5,0,8,5,118,pharmaceutical
695,695,11,13,6,5,92,financial
696,696,9,8,9,18,52,retail
697,697,17,26,9,22,201,retail
698,698,11,20,1,18,99,financial
699,699,2,3,1,3,200,education
700,700,14,18,9,18,187,pharmaceutical
701,701,10,11,8,26,127,retail
702,702,13,27,4,12,88,financial
703,703,9,19,9,21,90,education
704,704,6,25,8,12,72,retail
705,705,6,0,9,16,52,retail
706,706,19,20,1,5,85,retail
707,707,2,13,1,23,207,pharmaceutical
708,708,8,22,4,16,193,software
709,709,3,15,5,10,195,financial
710,710,19,18,1,7,92,retail
711,711,1,3,6,10,190,pharmaceutical
712,712,2,27,3,9,216,financial
713,713,9,13,1,12,47,education
714,714,10,25,7,11,140,pharmaceutical
715,715,1,19,6,19,231,education
716,716,18,22,7,11,94,software
717,717,3,8,0,4,198,retail
718,718,19,20,0,5,79,pharmaceutical
719,719,2,5,1,0,208,realestate
720,720,16,22,4,7,162,software
721,721,3,1,9,8,212,software
722,722,1,29,2,8,194,retail
723,723,4,28,2,16,155,financial
724,724,14,3,8,7,180,software
725,725,10,25,6,13,107,pharmaceutical
726,726,17,9,3,3,183,retail
727,727,16,11,2,5,149,pharmaceutical
728,728,2,8,0,9,201,education
729,729,8,5,2,7,179,education
730,730,9,23,3,23,43,education
731,731,0,19,3,22,123,realestate
732,732,7,4,1,14,162,financial
733,733,10,0,3,28,115,retail
734,734,1,2,9,6,163,education
735,735,10,28,4,25,97,realestate
736,736,11,3,1,21,99,realestate
737,737,12,11,3,20,87,software
738,738,16,29,4,18,155,software
739,739,6,13,1,12,84,realestate
740,740,18,7,4,15,98,software
741,741,18,25,0,3,79,realestate
742,742,15,11,2,6,199,retail
743,743,9,15,0,27,87,financial
744,744,17,24,3,6,193,retail
745,745,16,19,2,9,148,realestate
746,746,18,15,7,3,88,pharmaceutical
747,747,15,18,9,5,187,realestate
748,748,5,3,0,9,108,realestate
749,749,7,3,5,27,135,realestate
750,750,3,3,1,20,173,realestate
751,751,17,8,6,9,185,realestate
752,752,7,2,5,28,138,realestate
753,753,16,9,5,10,152,realestate
754,754,8,12,9,20,141,education
755,755,8,2,2,14,198,realestate
756,756,17,11,3,0,196,financial
757,757,7,7,7,4,122,software
758,758,1,3,8,3,189,financial
759,759,17,5,4,11,191,realestate
760,760,16,0,8,4,152,realestate
761,761,16,20,4,9,151,retail
762,762,19,18,0,8,116,software
763,763,12,6,2,21,107,retail
764,764,10,2,9,2,104,financial
765,765,13,20,6,29,104,realestate
766,766,1,29,6,9,188,education
767,767,9,13,6,17,96,financial
768,768,5,11,8,29,102,education
769,769,4,7,5,22,189,software
770,770,14,20,2,12,187,retail
771,771,3,7,1,28,195,software
772,772,13,9,4,28,124,software
773,773,2,0,1,24,209,pharmaceutical
774,774,3,26,5,28,174,pharmaceutical
775,775,4,13,1,16,132,software
776,776,10,4,3,1,116,software
777,777,6,6,4,16,62,education
778,778,3,28,1,10,191,pharmaceutical
779,779,6,23,8,10,74,realestate
780,780,12,8,9,10,79,software
781,781,15,26,3,6,186,education
782,782,16,26,3,3,151,retail
783,783,8,25,8,13,200,education
784,784,1,18,0,7,226,retail
785,785,0,23,4,5,122,pharmaceutical
786,786,2,12,7,18,217,pharmaceutical
787,787,17,24,9,21,203,retail
788,788,13,17,7,18,125,financial
789,789,14,23,4,17,179,education
790,790,7,24,1,29,145,realestate
791,791,11,4,0,19,116,financial
792,792,14,23,8,28,197,realestate
793,793,9,5,0,0,64,software
794,794,1,8,2,9,172,pharmaceutical
795,795,0,10,0,13,119,pharmaceutical
796,796,5,8,3,10,122,education
797,797,0,25,6,9,121,retail
798,798,9,27,9,9,45,financial
799,799,17,7,1,11,194,education
800,800,17,27,0,28,195,financial
801,801,10,21,8,17,153,software
802,802,12,23,5,0,109,realestate
803,803,15,13,3,9,178,retail
804,804,14,7,4,25,195,financial
805,805,13,29,4,27,88,software
806,806,1,3,7,23,189,education
807,807,10,13,3,6,110,financial
808,808,10,4,8,19,105,realestate
809,809,7,17,3,11,125,education
810,810,14,1,7,5,194,realestate
811,811,19,1,5,8,106,pharmaceutical
812,812,5,29,2,14,129,financial
813,813,9,12,3,1,51,software
814,814,0,16,3,29,123,realestate
815,815,14,26,5,8,183,pharmaceutical
816,816,4,24,1,18,132,software
817,817,5,17,7,8,102,software
818,818,2,20,6,27,216,retail
819,819,5,4,8,7,94,realestate
820,820,12,8,0,1,84,education
821,821,15,23,2,8,196,pharmaceutical
822,822,9,24,5,23,102,retail
823,823,13,28,1,25,108,software
824,824,0,7,9,0,123,retail
825,825,18,16,6,21,91,pharmaceutical
826,826,15,20,0,16,198,pharmaceutical
827,827,6,15,1,18,73,pharmaceutical
828,828,1,9,4,6,192,pharmaceutical
829,829,6,4,3,23,54,realestate
830,830,5,19,7,4,116,retail
831,831,10,7,5,5,123,pharmaceutical
832,832,18,19,7,19,52,education
833,833,2,28,2,1,201,financial
834,834,11,3,9,24,122,financial
835,835,7,18,3,5,131,retail
836,836,9,29,4,25,84,retail
837,837,5,1,4,27,114,retail
838,838,8,8,4,21,170,realestate
839,839,14,5,0,12,181,retail
840,840,0,6,8,9,122,financial
841,841,6,0,4,23,51,financial
842,842,19,4,5,6,109,software
843,843,16,26,9,18,156,retail
844,844,17,7,6,15,187,financial
845,845,12,23,4,23,98,education
846,846,10,14,0,9,91,pharmaceutical
847,847,16,25,4,12,146,retail
848,848,17,20,0,10,196,financial
849,849,5,1,8,26,121,software
850,850,5,21,0,17,92,pharmaceutical
851,851,15,24,2,18,216,realestate
852,852,0,10,6,21,119,retail
853,853,3,26,2,17,214,financial
854,854,10,7,7,29,130,software
855,855,0,11,0,3,123,financial
856,856,3,28,2,7,196,financial
857,857,12,10,9,22,105,retail
858,858,4,9,8,22,175,realestate
859,859,4,27,0,17,136,financial
860,860,2,25,8,6,213,pharmaceutical
861,861,3,22,5,11,165,pharmaceutical
862,862,6,9,1,8,70,software
863,863,5,8,1,26,124,realestate
864,864,13,4,2,5,130,pharmaceutical
865,865,0,6,7,23,123,education
866,866,3,12,0,20,196,education
867,867,4,24,7,28,177,retail
868,868,6,11,7,14,45,realestate
869,869,14,19,1,25,192,retail
870,870,4,29,1,5,154,financial
871,871,4,16,2,6,165,software
872,872,17,16,2,16,200,pharmaceutical
873,873,4,28,1,23,174,software
874,874,14,9,6,3,179,software
875,875,19,20,5,19,87,financial
876,876,4,23,3,7,139,software
877,877,17,10,4,0,202,software
878,878,2,2,4,21,215,retail
879,879,17,9,3,3,203,pharmaceutical
880,880,2,21,4,20,214,pharmaceutical
881,881,1,20,0,16,229,financial
882,882,14,10,0,8,197,software
883,883,11,14,9,16,126,financial
884,884,11,9,8,0,115,pharmaceutical
885,885,5,7,1,21,135,pharmaceutical
886,886,2,19,4,25,209,realestate
887,887,15,26,8,4,218,retail
888,888,15,1,2,28,202,retail
889,889,15,29,7,25,218,realestate
890,890,17,10,7,12,188,financial
891,891,0,14,6,9,122,software
892,892,4,0,5,24,146,education
893,893,12,13,5,3,89,financial
894,894,14,16,4,11,178,pharmaceutical
895,895,2,17,1,13,199,retail
896,896,9,20,2,29,95,software
897,897,11,12,5,25,93,pharmaceutical
898,898,11,17,0,18,106,retail
899,899,0,26,4,22,119,education
900,900,16,4,5,2,159,financial
901,901,2,9,7,11,207,software
902,902,13,10,0,26,105,realestate
903,903,10,26,1,14,93,software
904,904,0,11,9,25,123,pharmaceutical
905,905,13,4,8,5,138,education
906,906,14,12,0,12,185,realestate
907,907,10,24,9,23,98,realestate
908,908,6,27,9,12,78,education
909,909,2,0,8,12,201,software
910,910,12,21,0,21,106,financial
911,911,6,7,4,15,76,retail
912,912,18,20,9,15,63,financial
913,913,5,29,5,13,136,pharmaceutical
914,914,11,28,8,22,122,pharmaceutical
915,915,1,3,5,25,181,education
916,916,6,27,7,22,49,financial
917,917,17,7,6,6,194,software
918,918,10,27,7,18,158,financial
919,919,7,21,8,9,135,software
920,920,6,23,5,10,78,pharmaceutical
921,921,15,10,7,3,195,retail
922,922,5,18,5,2,117,pharmaceutical
923,923,4,23,4,19,168,software
924,924,19,9,4,16,101,realestate
925,925,11,22,0,19,121,pharmaceutical
926,926,15,20,3,18,212,education
927,927,4,0,3,4,180,financial
928,928,10,18,8,10,92,financial
929,929,0,7,2,5,121,education
930,930,8,10,6,18,115,realestate
931,931,1,19,7,1,212,realestate
932,932,9,19,0,21,95,education
933,933,11,28,9,28,114,education
934,934,4,12,1,6,160,realestate
935,935,17,4,9,4,188,retail
936,936,14,28,7,26,186,pharmaceutical
937,937,17,10,3,28,189,realestate
938,938,12,0,7,28,80,education
939,939,19,23,1,1,83,pharmaceutical
940,940,15,7,9,24,200,education
941,941,1,19,4,10,177,realestate
942,942,16,1,1,0,152,education
943,943,7,11,2,12,159,retail
944,944,10,18,1,29,89,education
945,945,16,23,5,13,147,financial
946,946,13,28,3,6,138,financial
947,947,13,29,7,27,113,realestate
948,948,5,12,5,25,108,pharmaceutical
949,949,19,24,6,24,106,retail
950,950,0,6,7,27,123,realestate
951,951,19,0,7,22,94,software
952,952,10,26,8,28,118,software
953,953,4,27,6,25,173,financial
954,954,14,2,4,10,194,software
955,955,19,14,4,16,112,realestate
956,956,18,11,5,14,94,financial
957,957,6,14,1,19,78,pharmaceutical
958,958,8,8,0,17,111,retail
959,959,8,16,5,1,158,retail
960,960,9,23,0,7,49,retail
961,961,15,9,4,23,203,education
962,962,14,20,4,24,196,education
963,963,17,29,9,7,193,pharmaceutical
964,964,4,4,5,1,144,software
965,965,16,9,1,24,147,financial
966,966,7,23,9,26,155,software
967,967,7,9,9,27,167,education
968,968,13,10,7,6,98,software
969,969,11,28,1,29,136,financial
970,970,7,9,5,14,134,pharmaceutical
971,971,13,7,2,4,110,pharmaceutical
972,972,10,6,2,3,131,retail
973,973,10,26,6,27,153,retail
974,974,15,23,0,5,216,software
975,975,14,16,8,25,180,pharmaceutical
976,976,17,25,6,7,194,retail
977,977,15,14,0,21,191,pharmaceutical
978,978,11,27,0,20,93,realestate
979,979,7,23,8,16,130,realestate
980,980,8,26,3,14,167,realestate
981,981,0,29,6,19,123,realestate
982,982,10,0,6,21,100,education
983,983,4,15,0,21,175,software
984,984,19,24,8,5,114,pharmaceutical
985,985,5,26,0,9,111,software
986,986,17,13,6,28,200,software
987,987,16,20,4,26,162,retail
988,988,3,28,2,10,168,pharmaceutical
989,989,13,22,7,29,113,realestate
990,990,9,8,8,9,98,realestate
991,991,9,9,9,4,59,software
992,992,1,7,7,27,175,retail
993,993,16,0,9,0,151,education
994,994,1,21,4,13,231,software
995,995,18,23,2,28,74,education
996,996,12,17,4,9,100,financial
997,997,13,24,6,2,118,retail
998,998,0,10,5,19,121,pharmaceutical
999,999,4,21,7,25,179,retail
1000,1000,12,23,0,3,91,software
1001,1001,0,7,0,19,120,financial
1002,1002,12,23,4,8,99,education
1003,1003,7,0,5,2,156,software
1004,1004,9,4,9,9,66,realestate
1005,1005,3,2,1,9,194,pharmaceutical
1006,1006,8,27,4,2,132,retail
1007,1007,6,28,8,13,55,retail
1008,1008,3,17,4,7,177,retail
1009,1009,15,28,0,10,219,software
1010,1010,3,22,8,10,167,education
1011,1011,19,8,0,28,108,software
1012,1012,11,1,0,29,122,retail
1013,1013,7,9,3,7,149,financial
1014,1014,19,4,3,16,90,retail
1015,1015,6,8,8,6,38,software
1016,1016,16,15,9,14,153,pharmaceutical
1017,1017,3,14,7,11,197,pharmaceutical
1018,1018,17,15,2,23,183,realestate
1019,1019,13,26,3,27,115,education
1020,1020,8,4,4,18,181,retail
1021,1021,3,12,4,18,180,education
1022,1022,14,21,8,1,185,education
1023,1023,12,19,7,11,108,financial
1024,1024,19,23,2,3,80,financial
1025,1025,18,24,5,20,73,software
1026,1026,4,25,7,9,186,software
1027,1027,10,5,0,4,109,pharmaceutical
1028,1028,15,6,2,1,211,financial
1029,1029,15,8,5,22,196,pharmaceutical
1030,1030,10,15,5,11,101,pharmaceutical
1031,1031,11,8,5,12,107,financial
1032,1032,12,19,9,14,92,software
1033,1033,12,14,1,5,103,software
1034,1034,15,7,7,6,216,realestate
1035,1035,15,0,6,24,213,retail
1036,1036,10,23,8,3,133,financial
1037,1037,18,14,9,1,71,retail
1038,1038,14,10,2,26,194,retail
1039,1039,17,27,6,0,183,education
1040,1040,9,27,1,20,56,education
1041,1041,1,15,5,24,202,financial
1042,1042,2,27,2,20,210,retail
1043,1043,17,8,3,11,184,realestate
1044,1044,18,17,7,13,62,retail
1045,1045,4,25,4,19,179,realestate
1046,1046,3,6,3,28,212,software
1047,1047,4,1,0,29,158,education
1048,1048,1,25,9,10,169,retail
1049,1049,14,21,1,11,191,pharmaceutical
1050,1050,0,29,6,22,119,retail
1051,1051,17,0,8,16,199,software
1052,1052,7,26,9,11,127,software
1053,1053,19,27,9,4,77,realestate
1054,1054,16,17,1,11,147,software
1055,1055,12,24,2,3,86,retail
1056,1056,18,29,1,20,74,financial
1057,1057,19,13,2,17,73,financial
1058,1058,3,25,8,22,184,education
1059,1059,3,29,6,27,187,financial
1060,1060,11,22,9,28,113,pharmaceutical
1061,1061,5,0,9,27,106,education
1062,1062,5,7,5,24,121,realestate
1063,1063,5,29,0,1,107,software
1064,1064,15,15,5,11,205,education
1065,1065,3,21,8,16,213,education
1066,1066,0,18,2,27,123,education
1067,1067,4,12,2,29,158,retail
1068,1068,15,10,2,16,197,realestate
1069,1069,10,6,4,5,119,financial
1070,1070,7,2,4,4,160,pharmaceutical
1071,1071,15,29,1,6,187,financial
1072,1072,6,0,1,2,42,retail
1073,1073,8,12,0,17,200,software
1074,1074,12,23,6,26,80,pharmaceutical
1075,1075,17,24,0,14,199,financial
1076,1076,17,10,2,13,195,pharmaceutical
1077,1077,19,3,3,5,108,education
1078,1078,18,17,0,1,62,retail
1079,1079,10,21,2,21,156,retail
1080,1080,7,10,5,14,124,retail
1081,1081,2,19,6,28,205,education
1082,1082,3,23,5,17,198,realestate
1083,1083,19,7,1,26,98,pharmaceutical
1084,1084,14,12,1,17,186,software
1085,1085,16,2,8,7,154,education
1086,1086,5,14,4,10,106,realestate
1087,1087,10,10,4,14,103,realestate
1088,1088,11,12,1,5,91,software
1089,1089,1,28,4,22,177,retail
1090,1090,16,10,9,3,152,retail
1091,1091,19,1,5,5,75,retail
1092,1092,9,12,4,7,98,pharmaceutical
1093,1093,7,9,4,14,133,software
1094,1094,13,0,3,19,112,financial
1095,1095,1,18,3,26,175,education
1096,1096,13,4,6,3,115,retail
1097,1097,17,26,9,22,195,software
1098,1098,10,21,1,11,130,software
1099,1099,2,27,7,3,209,retail
1100,1100,2,16,6,14,219,education
1101,1101,15,25,9,25,185,pharmaceutical
1102,1102,10,19,5,4,108,retail
1103,1103,9,25,1,9,72,realestate
1104,1104,19,12,6,2,98,realestate
1105,1105,2,26,9,8,214,education
1106,1106,4,22,7,14,148,realestate
1107,1107,3,18,2,19,200,pharmaceutical
1108,1108,8,18,9,5,154,financial
1109,1109,17,19,3,29,189,education
1110,1110,4,27,3,10,180,realestate
1111,1111,5,24,7,12,135,retail
1112,1112,1,1,1,13,155,realestate
1113,1113,11,8,4,9,110,financial
1114,1114,17,16,7,28,203,retail
1115,1115,17,8,6,16,186,realestate
1116,1116,10,16,6,17,143,financial
1117,1117,7,17,4,28,123,financial
1118,1118,3,2,1,7,165,education
1119,1119,5,0,9,1,133,software
1120,1120,13,25,1,27,128,education
1121,1121,0,4,1,28,123,pharmaceutical
1122,1122,17,29,1,24,203,retail
1123,1123,12,3,7,29,79,education
1124,1124,1,8,4,26,194,education
1125,1125,5,11,4,5,103,realestate
1126,1126,11,27,5,3,100,realestate
1127,1127,16,21,4,17,147,retail
1128,1128,5,9,6,25,129,education
1129,1129,9,21,6,20,93,realestate
1130,1130,10,1,2,18,129,retail
1131,1131,4,29,6,17,134,financial
1132,1132,12,15,6,0,110,retail
1133,1133,6,2,7,15,83,financial
1134,1134,16,15,8,12,151,software
1135,1135,15,1,5,16,219,software
1136,1136,3,23,2,1,167,pharmaceutical
1137,1137,1,18,9,9,182,pharmaceutical
1138,1138,15,27,7,23,205,pharmaceutical
1139,1139,12,22,5,16,80,realestate
1140,1140,2,19,6,22,202,education
1141,1141,1,15,0,19,174,pharmaceutical
1142,1142,9,7,8,20,102,education
1143,1143,9,14,5,22,86,retail
1144,1144,16,15,5,20,159,pharmaceutical
1145,1145,4,27,7,20,168,financial
1146,1146,19,24,2,26,74,pharmaceutical
1147,1147,18,8,4,3,59,education
1148,1148,16,7,1,27,150,retail
1149,1149,10,6,0,0,99,education
1150,1150,13,17,5,12,124,software
1151,1151,10,0,0,16,150,financial
1152,1152,8,7,3,8,206,retail
1153,1153,6,27,4,13,53,retail
1154,1154,2,11,4,1,207,pharmaceutical
1155,1155,1,14,6,11,198,software
1156,1156,11,6,2,6,111,pharmaceutical
1157,1157,16,28,4,10,161,pharmaceutical
1158,1158,13,29,3,0,102,software
1159,1159,17,10,1,3,203,software
1160,1160,15,14,2,6,216,pharmaceutical
1161,1161,12,4,4,14,85,realestate
1162,1162,15,25,9,23,207,retail
1163,1163,8,22,0,0,205,education
1164,1164,9,15,7,10,105,retail
1165,1165,10,25,9,12,120,pharmaceutical
1166,1166,11,28,5,19,95,realestate
1167,1167,0,7,2,29,123,software
1168,1168,15,26,5,6,219,realestate
1169,1169,11,12,0,13,106,financial
1170,1170,0,18,4,23,122,pharmaceutical
1171,1171,14,8,8,4,196,software
1172,1172,1,12,6,1,226,software
1173,1173,12,16,3,27,84,software
1174,1174,18,21,8,22,100,software
1175,1175,9,7,2,14,44,retail
1176,1176,15,22,3,27,211,realestate
1177,1177,10,4,3,5,145,software
1178,1178,1,6,5,14,193,financial
1179,1179,10,8,2,3,159,financial
1180,1180,14,6,6,14,185,education
1181,1181,8,14,5,11,120,education
1182,1182,19,5,9,13,83,education
1183,1183,16,16,6,13,154,software
1184,1184,9,27,4,17,93,software
1185,1185,9,16,9,13,58,education
1186,1186,5,17,8,0,104,retail
1187,1187,9,24,1,29,89,education
1188,1188,11,17,0,24,118,realestate
1189,1189,15,1,5,8,180,realestate
1190,1190,5,12,8,27,103,pharmaceutical
1191,1191,13,21,4,22,142,education
1192,1192,16,7,1,3,155,pharmaceutical
1193,1193,6,13,1,0,75,retail
1194,1194,2,16,0,15,210,retail
1195,1195,5,2,3,28,112,retail
1196,1196,1,1,4,12,221,realestate
1197,1197,7,12,6,18,134,financial
1198,1198,1,0,7,26,231,retail
1199,1199,17,9,3,18,183,pharmaceutical
1200,1200,18,4,9,2,66,education
1201,1201,8,28,2,13,156,software
1202,1202,0,2,0,26,120,realestate
1203,1203,2,4,6,8,215,education
1204,1204,3,11,7,16,189,retail
1205,1205,12,24,0,0,102,realestate
1206,1206,14,27,7,24,181,retail
1207,1207,17,25,9,8,200,software
1208,1208,18,0,7,21,63,realestate
1209,1209,9,21,0,17,88,financial
1210,1210,3,24,0,8,167,financial
1211,1211,1,13,6,15,197,pharmaceutical
1212,1212,17,17,9,18,196,software
1213,1213,9,19,9,12,89,retail
1214,1214,1,6,6,27,224,realestate
1215,1215,16,24,7,25,162,realestate
1216,1216,3,29,5,28,213,retail
1217,1217,11,18,1,4,97,retail
1218,1218,11,24,8,13,120,education
1219,1219,2,8,5,22,213,education
1220,1220,5,14,2,14,116,education
1221,1221,2,8,5,19,210,education
1222,1222,14,12,4,5,194,pharmaceutical
1223,1223,16,19,0,24,162,software
1224,1224,11,29,8,15,116,financial
1225,1225,15,28,4,24,202,pharmaceutical
1226,1226,11,17,0,6,113,retail
1227,1227,3,4,8,4,189,retail
1228,1228,16,19,2,1,146,software
1229,1229,14,26,5,11,195,education
1230,1230,0,25,6,11,122,retail
1231,1231,13,21,7,0,101,financial
1232,1232,8,9,2,24,121,software
1233,1233,2,14,8,15,206,education
1234,1234,11,4,8,12,106,software
1235,1235,0,3,3,8,121,education
1236,1236,17,8,1,29,193,pharmaceutical
1237,1237,7,25,6,16,130,retail
1238,1238,13,9,3,10,103,software
1239,1239,15,23,9,5,205,pharmaceutical
1240,1240,6,25,3,2,64,pharmaceutical
1241,1241,4,17,3,14,170,pharmaceutical
1242,1242,0,19,7,22,119,education
1243,1243,18,0,7,17,98,financial
1244,1244,9,8,9,4,63,pharmaceutical
1245,1245,14,23,7,7,195,retail
1246,1246,15,6,9,13,218,financial
1247,1247,6,4,1,20,64,software
1248,1248,6,11,4,26,77,retail
1249,1249,1,12,1,19,206,education
1250,1250,11,16,6,10,100,financial
1251,1251,11,13,8,25,127,financial
1252,1252,5,13,5,12,133,realestate
1253,1253,2,23,0,29,207,retail
1254,1254,12,3,6,2,90,realestate
1255,1255,5,6,6,0,136,realestate
1256,1256,8,25,3,19,189,pharmaceutical
1257,1257,11,24,9,24,106,financial
1258,1258,13,1,1,22,86,education
1259,1259,18,19,9,11,52,pharmaceutical
1260,1260,14,5,3,15,198,education
1261,1261,5,29,5,17,93,realestate
1262,1262,6,15,1,15,63,realestate
1263,1263,17,20,5,25,183,software
1264,1264,18,2,8,29,82,pharmaceutical
1265,1265,3,2,8,22,172,realestate
1266,1266,0,21,2,10,121,education
1267,1267,17,5,1,15,203,financial
1268,1268,3,8,9,8,165,pharmaceutical
1269,1269,5,22,5,1,108,education
1270,1270,7,7,5,22,135,retail
1271,1271,4,15,8,19,162,realestate
1272,1272,10,27,5,19,92,financial
1273,1273,9,8,7,10,86,retail
1274,1274,4,9,2,10,191,software
1275,1275,3,13,0,6,196,pharmaceutical
1276,1276,13,24,6,15,94,financial
1277,1277,6,8,8,20,48,financial
1278,1278,10,9,1,15,126,education
1279,1279,13,17,4,26,134,pharmaceutical
1280,1280,3,9,8,27,198,realestate
1281,1281,6,16,5,13,59,pharmaceutical
1282,1282,19,29,1,24,87,financial
1283,1283,0,22,3,20,122,financial
1284,1284,2,24,5,2,209,software
1285,1285,10,14,9,28,125,realestate
1286,1286,7,1,1,4,134,financial
1287,1287,16,5,0,10,161,financial
1288,1288,4,25,1,12,157,realestate
1289,1289,5,13,0,17,137,software
1290,1290,9,22,9,28,70,financial
1291,1291,6,11,4,25,42,education
1292,1292,19,4,7,21,75,financial
1293,1293,10,27,1,8,151,education
1294,1294,2,27,6,3,217,software
1295,1295,4,12,4,13,135,retail
1296,1296,3,2,1,8,195,software
1297,1297,16,27,7,10,158,software
1298,1298,1,9,6,9,167,pharmaceutical
1299,1299,19,3,1,14,112,education
1300,1300,6,18,9,3,64,retail
1301,1301,0,2,6,17,123,software
1302,1302,16,23,5,12,156,realestate
1303,1303,15,29,0,6,178,realestate
1304,1304,7,4,3,16,119,financial
1305,1305,14,20,2,14,197,retail
1306,1306,9,25,3,11,78,software
1307,1307,19,15,9,29,94,software
1308,1308,3,7,4,3,185,education
1309,1309,5,16,7,10,128,pharmaceutical
1310,1310,5,22,6,23,128,financial
1311,1311,17,23,3,7,193,financial
1312,1312,1,24,4,2,175,realestate
1313,1313,9,16,6,28,81,financial
1314,1314,0,12,8,21,123,retail
1315,1315,17,26,1,6,190,pharmaceutical
1316,1316,6,15,6,28,73,financial
1317,1317,10,21,3,10,121,retail
1318,1318,7,2,4,14,141,realestate
1319,1319,14,19,3,20,178,financial
1320,1320,2,19,1,15,216,retail
1321,1321,18,22,7,5,75,financial
1322,1322,11,15,7,24,135,software
1323,1323,7,4,8,7,145,software
1324,1324,6,3,7,1,64,retail
1325,1325,13,6,6,13,124,pharmaceutical
1326,1326,1,29,3,7,167,software
1327,1327,11,24,7,16,110,retail
1328,1328,7,1,6,8,131,realestate
1329,1329,1,12,8,29,159,software
1330,1330,11,24,4,29,94,financial
1331,1331,3,18,8,26,165,software
1332,1332,12,8,5,2,88,realestate
1333,1333,6,5,7,28,58,retail
1334,1334,4,11,6,24,189,software
1335,1335,13,19,0,12,116,pharmaceutical
1336,1336,16,15,5,22,150,retail
1337,1337,4,20,7,24,160,education
1338,1338,17,16,4,16,200,realestate
1339,1339,10,11,4,14,132,software
1340,1340,6,16,0,6,84,retail
1341,1341,8,11,2,3,113,software
1342,1342,15,11,3,28,216,realestate
1343,1343,19,6,3,21,93,education
1344,1344,17,28,7,7,186,pharmaceutical
1345,1345,9,26,9,26,44,retail
1346,1346,14,0,6,13,181,pharmaceutical
1347,1347,10,21,8,12,135,realestate
1348,1348,7,15,3,17,156,education
1349,1349,18,0,5,1,57,retail
1350,1350,16,6,8,23,160,software
1351,1351,19,11,7,13,95,pharmaceutical
1352,1352,15,6,7,9,213,education
1353,1353,6,25,7,14,49,retail
1354,1354,2,16,0,23,208,retail
1355,1355,17,27,4,12,199,software
1356,1356,17,0,1,25,188,pharmaceutical
1357,1357,0,4,8,2,122,education
1358,1358,5,16,9,13,98,financial
1359,1359,13,5,7,17,111,financial
1360,1360,11,9,1,22,140,software
1361,1361,10,29,3,0,104,retail
1362,1362,13,1,8,23,117,financial
1363,1363,6,23,4,2,53,realestate
1364,1364,17,18,0,23,204,retail
1365,1365,2,22,5,8,219,software
1366,1366,12,15,4,3,83,retail
1367,1367,1,1,8,1,217,retail
1368,1368,13,23,2,16,132,pharmaceutical
1369,1369,7,22,2,19,151,pharmaceutical
1370,1370,17,9,3,15,203,pharmaceutical
1371,1371,0,19,2,17,123,realestate
1372,1372,13,11,0,26,138,retail
1373,1373,9,21,1,16,78,pharmaceutical
1374,1374,6,15,7,9,45,pharmaceutical
1375,1375,3,4,6,29,215,financial
1376,1376,2,24,9,12,215,retail
1377,1377,19,21,2,14,113,retail
1378,1378,8,15,2,10,182,retail
1379,1379,10,20,4,1,135,education
1380,1380,7,15,4,22,148,retail
1381,1381,11,17,9,9,114,retail
1382,1382,19,11,0,3,106,pharmaceutical
1383,1383,6,20,0,5,59,education
1384,1384,18,7,2,3,76,pharmaceutical
1385,1385,5,12,8,28,106,realestate
1386,1386,12,0,6,0,96,pharmaceutical
1387,1387,16,12,9,25,154,realestate
1388,1388,10,29,5,13,106,retail
1389,1389,5,14,4,15,102,software
1390,1390,8,26,0,6,135,software
1391,1391,11,12,4,4,106,financial
1392,1392,3,23,6,19,167,financial
1393,1393,14,18,0,10,192,software
1394,1394,9,15,9,7,93,education
1395,1395,6,1,8,12,61,financial
1396,1396,7,19,2,29,133,education
1397,1397,0,6,1,22,119,financial
1398,1398,15,29,6,19,207,software
1399,1399,1,20,2,10,180,software
1400,1400,7,20,9,1,136,education
1401,1401,14,22,7,1,188,financial
1402,1402,12,27,9,12,96,education
1403,1403,5,0,8,12,104,retail
1404,1404,2,12,0,1,202,retail
1405,1405,2,22,5,20,210,education
1406,1406,17,8,9,26,194,software
1407,1407,0,11,8,2,121,education
1408,1408,13,23,8,14,120,realestate
1409,1409,11,28,9,4,103,pharmaceutical
1410,1410,15,8,0,7,196,realestate
1411,1411,7,12,0,14,139,retail
1412,1412,4,29,3,25,149,financial
1413,1413,4,14,0,17,187,realestate
1414,1414,11,29,0,19,122,realestate
1415,1415,11,0,1,12,132,education
1416,1416,16,6,7,3,146,financial
1417,1417,10,21,1,10,98,software
1418,1418,10,21,2,29,150,pharmaceutical
1419,1419,0,12,1,26,119,retail
1420,1420,11,21,1,21,130,retail
1421,1421,11,6,0,10,127,software
1422,1422,16,11,1,25,149,software
1423,1423,16,26,7,27,152,realestate
1424,1424,9,20,8,1,105,education
1425,1425,19,11,5,3,117,education
1426,1426,3,3,0,13,203,financial
1427,1427,5,12,5,24,102,realestate
1428,1428,17,15,1,9,205,software
1429,1429,17,0,6,6,185,software
1430,1430,8,5,5,5,165,software
1431,1431,9,4,3,22,105,pharmaceutical
1432,1432,5,4,8,24,98,financial
1433,1433,6,17,3,3,39,retail
1434,1434,11,3,8,10,99,realestate
1435,1435,18,26,2,15,57,financial
1436,1436,7,8,1,11,148,financial
1437,1437,3,0,5,0,197,retail
1438,1438,13,16,2,14,137,retail
1439,1439,18,9,8,24,84,realestate
1440,1440,5,13,4,24,140,financial
1441,1441,13,14,6,18,100,realestate
1442,1442,15,17,5,1,204,financial
1443,1443,4,12,9,13,194,software
1444,1444,7,23,4,27,126,retail
1445,1445,1,25,4,3,207,software
1446,1446,16,9,1,29,153,realestate
1447,1447,0,26,0,6,123,realestate
1448,1448,12,10,3,10,87,software
1449,1449,18,2,7,16,52,financial
1450,1450,15,18,0,28,194,retail
1451,1451,13,14,0,26,144,realestate
1452,1452,18,20,3,3,103,education
1453,1453,7,26,5,15,150,education
1454,1454,3,18,0,2,188,financial
1455,1455,13,17,8,17,138,realestate
1456,1456,4,24,2,27,147,pharmaceutical
1457,1457,11,18,6,4,141,software
1458,1458,13,0,5,26,122,software
1459,1459,13,5,7,13,91,realestate
1460,1460,3,12,4,13,202,software
1461,1461,4,29,3,2,132,realestate
1462,1462,1,6,1,28,209,financial
1463,1463,6,0,2,3,69,financial
1464,1464,12,2,8,24,101,software
1465,1465,4,9,2,2,163,financial
1466,1466,2,0,0,26,204,pharmaceutical
1467,1467,1,8,3,25,176,software
1468,1468,17,2,5,10,203,education
1469,1469,10,22,2,9,106,pharmaceutical
1470,1470,0,8,2,10,121,realestate
1471,1471,3,25,5,15,185,pharmaceutical
1472,1472,2,4,6,15,219,retail
1473,1473,16,11,1,4,147,retail
1474,1474,19,16,5,26,77,retail
1475,1475,9,1,7,26,99,pharmaceutical
1476,1476,12,12,2,5,85,realestate
1477,1477,19,10,2,9,90,realestate
1478,1478,2,24,6,0,210,realestate
1479,1479,2,16,1,13,210,financial
1480,1480,10,6,4,18,148,software
1481,1481,9,10,6,29,84,software
1482,1482,17,13,8,7,205,realestate
1483,1483,19,0,3,26,78,retail
1484,1484,8,19,2,27,172,education
1485,1485,0,7,5,0,120,software
1486,1486,8,11,1,14,114,retail
1487,1487,9,2,5,10,65,retail
1488,1488,9,24,1,3,78,pharmaceutical
1489,1489,11,12,3,4,110,pharmaceutical
1490,1490,1,12,9,17,204,financial
1491,1491,8,3,8,18,133,realestate
1492,1492,0,1,3,12,120,financial
1493,1493,5,23,5,0,137,education
1494,1494,10,28,5,0,119,retail
1495,1495,7,29,5,18,130,software
1496,1496,3,15,9,2,207,software
1497,1497,13,14,5,8,133,realestate
1498,1498,16,26,4,20,161,retail
1499,1499,15,6,6,9,210,software
1500,1500,0,4,2,14,123,software
1501,1501,9,5,7,21,46,realestate
1502,1502,0,16,6,10,119,retail
1503,1503,16,21,2,13,156,retail
1504,1504,13,9,2,12,94,pharmaceutical
1505,1505,1,4,6,5,176,software
1506,1506,8,2,6,21,110,retail
1507,1507,10,3,7,22,105,retail
1508,1508,15,4,7,13,188,software
1509,1509,13,5,6,28,112,education
1510,1510,1,0,5,7,221,education
1511,1511,11,26,3,13,138,retail
1512,1512,7,18,7,4,121,realestate
1513,1513,7,26,4,14,129,software
1514,1514,0,3,1,3,119,financial
1515,1515,14,21,1,4,187,software
1516,1516,1,6,3,22,180,financial
1517,1517,18,14,1,13,97,education
1518,1518,19,19,9,1,114,retail
1519,1519,5,27,1,15,121,education
1520,1520,10,7,9,14,144,education
1521,1521,10,15,2,2,98,retail
1522,1522,8,5,7,10,117,retail
1523,1523,16,17,1,2,146,software
1524,1524,2,15,4,18,214,pharmaceutical
1525,1525,12,7,3,6,98,software
1526,1526,9,20,6,16,95,financial
1527,1527,5,20,0,28,132,realestate
1528,1528,14,12,2,21,182,realestate
1529,1529,8,22,4,0,206,realestate
1530,1530,10,3,1,26,151,education
1531,1531,8,26,3,28,203,software
1532,1532,8,16,1,27,171,software
1533,1533,11,9,6,21,126,pharmaceutical
1534,1534,15,0,5,8,206,financial
1535,1535,15,5,6,24,203,pharmaceutical
1536,1536,17,29,6,26,200,retail
1537,1537,0,14,9,25,120,financial
1538,1538,1,24,2,8,193,retail
1539,1539,15,1,1,13,183,software
1540,1540,8,7,1,22,172,retail
1541,1541,15,14,5,13,216,financial
1542,1542,17,4,8,0,205,financial
1543,1543,3,5,3,16,202,education
1544,1544,18,6,3,22,57,education
1545,1545,19,14,5,10,87,software
1546,1546,2,22,1,10,207,pharmaceutical
1547,1547,14,24,7,9,192,pharmaceutical
1548,1548,17,17,6,24,193,software
1549,1549,17,17,4,29,195,pharmaceutical
1550,1550,12,15,2,6,89,pharmaceutical
1551,1551,17,0,5,14,183,education
1552,1552,11,15,8,10,140,retail
1553,1553,2,15,1,5,218,software
1554,1554,5,18,1,15,140,retail
1555,1555,19,26,1,14,96,education
1556,1556,7,8,4,28,144,education
1557,1557,18,21,5,27,53,pharmaceutical
1558,1558,19,12,3,23,106,realestate
1559,1559,12,4,4,24,103,realestate
1560,1560,18,21,6,18,99,education
1561,1561,4,4,9,12,148,financial
1562,1562,4,22,7,4,163,realestate
1563,1563,16,1,6,18,158,financial
1564,1564,17,3,6,2,198,realestate
1565,1565,13,25,5,29,104,software
1566,1566,19,24,8,21,74,software
1567,1567,4,12,0,3,182,pharmaceutical
1568,1568,3,16,9,12,207,pharmaceutical
1569,1569,5,21,4,11,134,retail
1570,1570,7,7,2,17,138,software
1571,1571,5,16,7,9,135,education
1572,1572,7,12,5,22,134,realestate
1573,1573,5,5,5,4,107,retail
1574,1574,3,12,0,17,205,education
1575,1575,1,9,9,21,216,financial
1576,1576,16,13,6,27,147,pharmaceutical
1577,1577,19,4,7,11,88,pharmaceutical
1578,1578,17,13,3,24,187,pharmaceutical
1579,1579,8,18,3,4,183,education
1580,1580,0,11,1,12,123,retail
1581,1581,5,1,5,2,124,software
1582,1582,4,13,9,14,154,retail
1583,1583,0,16,9,3,119,software
1584,1584,6,0,6,20,40,realestate
1585,1585,9,3,4,2,90,software
1586,1586,9,8,8,23,95,education
1587,1587,3,6,8,6,212,retail
1588,1588,4,12,1,4,160,retail
1589,1589,2,18,6,15,216,pharmaceutical
1590,1590,9,3,9,25,73,realestate
1591,1591,11,7,3,12,140,financial
1592,1592,11,22,5,0,114,pharmaceutical
1593,1593,8,24,2,18,201,financial
1594,1594,9,15,5,17,65,pharmaceutical
1595,1595,11,3,2,10,109,retail
1596,1596,3,23,7,23,193,realestate
1597,1597,9,17,3,19,100,education
1598,1598,11,5,4,16,101,realestate
1599,1599,14,7,2,14,199,education
1600,1600,18,9,2,16,94,retail
1601,1601,11,6,9,16,137,financial
1602,1602,6,11,0,9,58,retail
1603,1603,6,13,3,12,46,financial
1604,1604,3,28,7,5,215,retail
1605,1605,4,4,8,22,150,realestate
1606,1606,2,24,1,5,217,retail
1607,1607,18,21,1,1,88,realestate
1608,1608,12,24,6,2,100,software
1609,1609,13,18,6,24,105,pharmaceutical
1610,1610,1,1,6,17,233,financial
1611,1611,2,12,3,15,208,education
1612,1612,10,7,4,12,152,software
1613,1613,7,21,8,14,147,pharmaceutical
1614,1614,10,21,4,17,114,retail
1615,1615,6,20,5,2,56,software
1616,1616,18,19,0,19,82,realestate
1617,1617,8,11,4,25,190,retail
1618,1618,12,24,9,22,83,financial
1619,1619,2,18,4,27,210,pharmaceutical
1620,1620,9,2,9,21,45,pharmaceutical
1621,1621,16,15,0,18,157,pharmaceutical
1622,1622,14,3,6,6,189,realestate
1623,1623,14,2,9,10,193,education
1624,1624,7,26,0,20,121,retail
1625,1625,1,14,9,16,200,education
1626,1626,6,4,5,16,82,software
1627,1627,6,23,4,15,79,pharmaceutical
1628,1628,14,3,7,17,180,realestate
1629,1629,5,16,7,29,95,financial
1630,1630,11,8,6,23,116,pharmaceutical
1631,1631,14,22,3,1,179,education
1632,1632,6,22,6,14,39,software
1633,1633,16,18,1,11,156,realestate
1634,1634,2,4,5,24,219,financial
1635,1635,19,1,9,13,87,pharmaceutical
1636,1636,14,9,3,0,184,realestate
1637,1637,3,17,9,19,196,education
1638,1638,6,3,8,7,43,retail
1639,1639,9,8,4,7,50,software
1640,1640,10,1,6,18,156,financial
1641,1641,14,20,2,25,196,retail
1642,1642,11,7,3,3,100,pharmaceutical
1643,1643,1,23,7,21,160,pharmaceutical
1644,1644,3,27,7,0,204,pharmaceutical
1645,1645,18,18,1,2,72,pharmaceutical
1646,1646,9,15,4,9,65,education
1647,1647,17,24,4,7,205,education
1648,1648,4,27,2,4,192,financial
1649,1649,18,22,6,1,63,education
1650,1650,9,14,8,26,58,realestate
1651,1651,3,21,6,24,167,retail
1652,1652,14,4,8,3,196,software
1653,1653,1,24,0,16,170,retail
1654,1654,18,7,5,23,93,education
1655,1655,10,23,3,12,145,retail
1656,1656,8,14,2,29,149,retail
1657,1657,7,9,8,22,164,financial
1658,1658,14,18,5,29,178,software
1659,1659,19,11,0,12,103,software
1660,1660,1,29,9,8,186,education
1661,1661,5,5,4,27,111,software
1662,1662,12,13,0,25,100,realestate
1663,1663,16,12,7,21,161,realestate
1664,1664,4,12,2,9,159,pharmaceutical
1665,1665,10,8,3,24,91,pharmaceutical
1666,1666,18,20,8,11,80,realestate
1667,1667,4,24,5,15,171,retail
1668,1668,19,27,7,13,73,software
1669,1669,18,25,1,5,62,retail
1670,1670,19,17,0,15,75,retail
1671,1671,11,16,3,4,114,software
1672,1672,11,25,2,5,131,education
1673,1673,13,5,5,26,131,pharmaceutical
1674,1674,15,0,9,20,206,software
1675,1675,14,6,0,9,186,education
1676,1676,2,11,5,11,210,realestate
1677,1677,7,4,3,8,165,software
1678,1678,11,21,6,15,135,pharmaceutical
1679,1679,14,19,8,5,192,retail
1680,1680,2,0,1,26,205,financial
1681,1681,17,10,2,11,183,education
1682,1682,1,15,1,24,216,education
1683,1683,13,20,1,27,99,realestate
1684,1684,11,1,6,20,134,financial
1685,1685,12,28,4,1,103,education
1686,1686,5,14,4,13,101,pharmaceutical
1687,1687,15,2,4,9,207,financial
1688,1688,6,14,8,28,46,financial
1689,1689,5,25,9,11,135,software
1690,1690,3,27,0,2,173,education
1691,1691,19,29,1,9,117,retail
1692,1692,10,19,8,1,152,financial
1693,1693,7,3,0,8,157,realestate
1694,1694,4,0,7,15,186,retail
1695,1695,2,25,4,12,208,financial
1696,1696,15,28,2,28,213,retail
1697,1697,10,6,5,18,147,realestate
1698,1698,7,1,0,1,127,education
1699,1699,1,29,3,21,157,pharmaceutical
1700,1700,13,21,4,5,93,realestate
1701,1701,13,17,7,23,121,financial
1702,1702,5,3,9,26,92,financial
1703,1703,4,3,6,19,140,realestate
1704,1704,10,7,6,13,133,software
1705,1705,0,6,1,8,123,retail
1706,1706,13,15,8,21,112,education
1707,1707,19,7,0,5,84,pharmaceutical
1708,1708,13,22,3,9,145,financial
1709,1709,17,7,5,18,184,retail
1710,1710,19,7,2,16,76,realestate
1711,1711,3,27,1,29,198,software
1712,1712,16,13,5,16,159,realestate
1713,1713,3,1,9,18,210,realestate
1714,1714,0,20,4,25,122,retail
1715,1715,2,20,6,14,211,financial
1716,1716,0,21,1,20,120,financial
1717,1717,13,4,3,10,105,realestate
1718,1718,3,10,7,12,217,software
1719,1719,4,0,0,2,167,pharmaceutical
1720,1720,4,2,3,11,181,retail
1721,1721,0,9,5,5,121,pharmaceutical
1722,1722,19,16,0,23,79,education
1723,1723,3,4,5,12,191,pharmaceutical
1724,1724,11,16,9,12,124,financial
1725,1725,13,14,8,24,111,software
1726,1726,17,25,8,11,195,education
1727,1727,3,5,8,17,194,software
1728,1728,8,12,6,26,110,retail
1729,1729,3,4,6,21,185,pharmaceutical
1730,1730,8,26,8,18,118,retail
1731,1731,15,23,3,1,202,retail
1732,1732,1,18,3,6,208,pharmaceutical
1733,1733,5,15,8,15,92,financial
1734,1734,16,25,6,2,160,retail
1735,1735,15,8,1,5,207,pharmaceutical
1736,1736,15,7,8,21,206,realestate
1737,1737,5,19,7,6,94,education
1738,1738,0,21,5,4,119,realestate
1739,1739,5,1,3,28,112,pharmaceutical
1740,1740,18,10,3,3,56,education
1741,1741,4,5,7,24,180,education
1742,1742,14,29,3,28,193,education
1743,1743,12,13,2,9,83,education
1744,1744,4,11,7,21,142,realestate
1745,1745,9,1,1,3,53,retail
1746,1746,17,10,1,29,189,realestate
1747,1747,13,8,3,0,116,education
1748,1748,17,28,7,9,183,realestate
1749,1749,12,13,1,27,87,financial
1750,1750,0,5,6,20,119,software
1751,1751,10,17,7,6,114,retail
1752,1752,10,25,3,1,118,realestate
1753,1753,9,9,8,7,63,education
1754,1754,18,14,6,29,56,realestate
1755,1755,1,16,1,25,191,realestate
1756,1756,10,11,1,15,113,software
1757,1757,14,27,1,5,196,education
1758,1758,2,16,0,11,219,retail
1759,1759,17,27,4,28,189,retail
1760,1760,6,23,7,5,54,software
1761,1761,7,3,8,5,147,education
1762,1762,2,20,2,16,202,education
1763,1763,8,21,7,20,119,realestate
1764,1764,12,0,4,6,95,education
1765,1765,1,8,4,13,194,financial
1766,1766,1,29,0,18,203,realestate
1767,1767,16,13,2,27,154,education
1768,1768,11,9,6,22,140,financial
1769,1769,13,15,0,12,146,software
1770,1770,1,2,2,17,215,retail
1771,1771,5,23,3,3,120,financial
1772,1772,3,9,0,26,165,pharmaceutical
1773,1773,4,11,1,20,194,education
1774,1774,18,10,4,4,80,realestate
1775,1775,0,27,0,6,120,software
1776,1776,5,20,2,28,92,pharmaceutical
1777,1777,11,4,7,20,98,software
1778,1778,5,11,3,2,131,retail
1779,1779,2,14,8,17,212,realestate
1780,1780,14,1,3,17,194,education
1781,1781,2,25,7,19,219,realestate
1782,1782,13,17,5,28,91,education
1783,1783,16,2,0,15,160,software
1784,1784,9,20,8,20,85,software
1785,1785,1,27,7,0,202,realestate
1786,1786,17,24,1,17,194,realestate
1787,1787,11,28,0,3,122,financial
1788,1788,5,10,9,7,112,pharmaceutical
1789,1789,7,5,4,21,161,software
1790,1790,19,14,4,12,78,realestate
1791,1791,8,9,1,29,157,realestate
1792,1792,1,5,3,6,232,financial
1793,1793,16,13,0,7,151,financial
1794,1794,1,16,5,21,187,retail
1795,1795,9,6,4,25,43,realestate
1796,1796,4,25,1,29,140,financial
1797,1797,2,20,7,3,201,software
1798,1798,10,23,0,1,132,realestate
1799,1799,12,26,4,8,86,realestate
1800,1800,10,6,8,26,147,retail
1801,1801,16,29,4,29,150,software
1802,1802,12,29,1,25,101,realestate
1803,1803,13,13,1,17,139,software
1804,1804,10,22,9,12,107,pharmaceutical
1805,1805,5,11,4,2,130,financial
1806,1806,13,17,4,6,145,pharmaceutical
1807,1807,8,22,3,21,194,retail
1808,1808,4,6,2,18,139,education
1809,1809,5,25,3,6,93,realestate
1810,1810,3,27,6,20,165,education
1811,1811,9,15,9,1,43,pharmaceutical
1812,1812,14,18,0,2,195,pharmaceutical
1813,1813,6,3,7,1,71,software
1814,1814,9,2,1,27,56,education
1815,1815,7,26,3,4,119,retail
1816,1816,4,3,7,10,153,financial
1817,1817,11,11,4,21,113,software
1818,1818,16,29,8,23,162,retail
1819,1819,11,12,0,24,113,realestate
1820,1820,17,5,4,8,202,pharmaceutical
1821,1821,10,0,7,28,117,education
1822,1822,4,24,0,5,142,realestate
1823,1823,5,8,7,2,104,pharmaceutical
1824,1824,6,26,8,20,76,pharmaceutical
1825,1825,7,4,0,14,146,pharmaceutical
1826,1826,12,17,5,16,93,education
1827,1827,2,17,2,14,219,software
1828,1828,10,22,2,1,110,realestate
1829,1829,14,20,0,23,199,education
1830,1830,5,9,9,21,137,pharmaceutical
1831,1831,7,9,8,16,134,retail
1832,1832,11,19,3,15,115,pharmaceutical
1833,1833,2,18,0,12,213,pharmaceutical
1834,1834,4,16,8,28,162,retail
1835,1835,7,4,3,22,127,pharmaceutical
1836,1836,8,12,3,23,205,retail
1837,1837,12,5,1,20,103,pharmaceutical
1838,1838,13,18,4,25,98,pharmaceutical
1839,1839,11,23,5,23,118,education
1840,1840,3,8,0,8,208,retail
1841,1841,10,19,6,2,125,realestate
1842,1842,17,9,6,18,194,software
1843,1843,9,28,8,20,51,retail
1844,1844,7,18,7,26,154,education
1845,1845,4,16,2,20,174,software
1846,1846,16,2,2,5,152,financial
1847,1847,6,8,3,8,39,education
1848,1848,3,25,2,4,199,pharmaceutical
1849,1849,10,11,9,11,144,education
1850,1850,19,12,6,0,117,retail
1851,1851,19,11,0,24,95,software
1852,1852,6,17,0,25,69,software
1853,1853,17,13,8,17,204,education
1854,1854,17,10,5,6,194,pharmaceutical
1855,1855,4,29,5,17,190,financial
1856,1856,12,25,8,4,87,pharmaceutical
1857,1857,16,11,7,22,154,retail
1858,1858,9,16,4,23,101,financial
1859,1859,16,7,4,18,146,pharmaceutical
1860,1860,10,7,1,6,128,pharmaceutical
1861,1861,3,11,8,13,194,pharmaceutical
1862,1862,13,21,4,16,111,pharmaceutical
1863,1863,4,2,8,21,178,software
1864,1864,6,14,6,4,61,education
1865,1865,18,10,6,20,65,pharmaceutical
1866,1866,10,2,1,18,93,pharmaceutical
1867,1867,17,20,4,19,203,education
1868,1868,17,9,2,7,198,financial
1869,1869,12,16,7,20,102,retail
1870,1870,8,26,7,0,147,financial
1871,1871,10,20,3,24,136,realestate
1872,1872,10,21,7,1,109,retail
1873,1873,3,0,0,17,176,retail
1874,1874,13,22,5,21,137,retail
1875,1875,4,2,9,24,131,retail
1876,1876,11,10,3,19,131,software
1877,1877,1,0,9,7,220,pharmaceutical
1878,1878,6,27,1,29,46,software
1879,1879,2,5,8,17,205,pharmaceutical
1880,1880,3,17,3,10,198,retail
1881,1881,9,0,7,16,93,software
1882,1882,1,4,7,8,191,financial
1883,1883,1,12,6,22,186,pharmaceutical
1884,1884,8,8,9,0,115,financial
1885,1885,4,1,4,24,136,financial
1886,1886,3,3,2,18,205,software
1887,1887,16,28,5,27,150,software
1888,1888,12,1,8,8,90,pharmaceutical
1889,1889,2,13,9,12,205,retail
1890,1890,9,29,4,6,56,realestate
1891,1891,1,26,9,8,182,financial
1892,1892,8,2,8,27,202,realestate
1893,1893,8,6,6,17,132,pharmaceutical
1894,1894,14,1,8,21,182,software
1895,1895,11,9,2,4,125,education
1896,1896,16,28,3,18,162,software
1897,1897,5,7,7,2,120,financial
1898,1898,17,13,3,13,189,financial
1899,1899,17,5,6,11,190,financial
1900,1900,1,15,8,20,188,financial
1901,1901,18,10,6,27,67,pharmaceutical
1902,1902,1,18,7,3,165,education
1903,1903,16,25,7,22,146,pharmaceutical
1904,1904,4,21,6,22,144,pharmaceutical
1905,1905,0,4,9,8,123,education
1906,1906,11,27,0,21,111,software
1907,1907,1,18,7,1,202,education
1908,1908,3,20,1,9,187,education
1909,1909,16,12,7,22,152,retail
1910,1910,11,7,9,24,130,realestate
1911,1911,6,1,4,11,77,software
1912,1912,8,9,6,14,152,financial
1913,1913,1,18,4,11,216,software
1914,1914,19,16,8,27,108,retail
1915,1915,11,1,4,17,97,pharmaceutical
1916,1916,11,22,5,25,130,education
1917,1917,13,20,0,25,128,realestate
1918,1918,16,3,4,4,160,education
1919,1919,17,21,7,17,200,retail
1920,1920,1,17,3,20,192,realestate
1921,1921,7,17,4,19,144,retail
1922,1922,7,1,0,23,145,education
1923,1923,15,3,5,16,180,financial
1924,1924,11,4,8,24,140,software
1925,1925,14,22,8,12,183,realestate
1926,1926,4,2,1,13,172,pharmaceutical
1927,1927,1,11,6,11,207,retail
1928,1928,8,8,1,18,145,education
1929,1929,3,9,9,7,189,software
1930,1930,11,28,2,21,94,retail
1931,1931,9,24,6,26,69,financial
1932,1932,4,15,7,28,143,realestate
1933,1933,4,27,3,26,158,pharmaceutical
1934,1934,0,0,3,25,122,pharmaceutical
1935,1935,14,21,9,11,185,pharmaceutical
1936,1936,5,22,9,18,110,software
1937,1937,13,21,1,4,114,pharmaceutical
1938,1938,12,17,7,21,93,retail
1939,1939,8,24,0,27,159,software
1940,1940,16,12,6,6,158,financial
1941,1941,1,17,9,26,189,education
1942,1942,7,2,6,28,129,financial
1943,1943,7,21,0,8,126,financial
1944,1944,4,22,6,25,130,software
1945,1945,2,6,1,7,213,retail
1946,1946,16,7,5,16,148,education
1947,1947,3,15,3,27,180,software
1948,1948,7,10,6,26,129,software
1949,1949,6,1,3,26,47,software
1950,1950,14,17,6,10,198,education
1951,1951,17,13,6,19,187,software
1952,1952,15,11,8,13,213,education
1953,1953,17,20,6,2,196,pharmaceutical
1954,1954,13,11,8,0,138,realestate
1955,1955,8,27,1,3,176,financial
1956,1956,13,12,4,28,120,retail
1957,1957,4,9,5,2,154,retail
1958,1958,8,4,4,13,165,education
1959,1959,10,14,1,1,98,pharmaceutical
1960,1960,18,20,4,28,69,education
1961,1961,16,1,9,3,160,education
1962,1962,5,19,8,12,115,education
1963,1963,19,24,7,3,83,retail
1964,1964,2,7,0,7,214,retail
1965,1965,0,27,4,8,122,education
1966,1966,10,19,2,12,125,education
1967,1967,11,27,4,16,99,realestate
1968,1968,1,27,3,15,217,education
1969,1969,17,7,8,9,194,retail
1970,1970,12,19,3,15,81,pharmaceutical
1971,1971,13,29,9,20,133,software
1972,1972,8,8,7,11,169,retail
1973,1973,8,13,2,21,136,financial
1974,1974,15,19,5,29,213,financial
1975,1975,4,9,1,16,184,pharmaceutical
1976,1976,1,2,8,8,166,realestate
1977,1977,19,14,9,12,119,retail
1978,1978,6,0,6,9,83,financial
1979,1979,11,19,4,5,133,retail
1980,1980,0,5,1,20,123,realestate
1981,1981,2,19,0,19,202,retail
1982,1982,8,1,6,16,168,financial
1983,1983,1,24,2,15,206,education
1984,1984,11,9,7,12,109,software
1985,1985,13,15,3,12,133,realestate
1986,1986,15,18,4,19,203,retail
1987,1987,18,2,1,26,72,realestate
1988,1988,1,2,0,29,162,realestate
1989,1989,10,1,5,9,92,software
1990,1990,12,12,8,23,107,education
1991,1991,13,5,6,22,98,retail
1992,1992,7,2,1,3,163,retail
1993,1993,19,11,7,5,119,pharmaceutical
1994,1994,14,3,3,10,178,software
1995,1995,1,5,1,15,200,software
1996,1996,14,27,5,29,189,software
1997,1997,14,19,6,27,180,education
1998,1998,9,9,1,12,85,software
1999,1999,8,17,5,2,158,software
